decode2/climaC1_23toHito22both.vcd
$timescale 1 ns $end
$scope module top $end
$var wire 1 ! CLOCK $end
$var wire 1 " MOSI $end
$upscope $end
$enddefinitions $end
#0
1!
0"
#2189750
0!
#2198250
1"
#2242250
1!
#2294000
0!
#2303250
0"
#2346500
1!
#2398250
0!
#2450750
1!
#2502500
0!
#2511000
1"
#2555000
1!
#2606750
0!
#2659250
1!
#2711000
0!
#2763500
1!
#2815250
0!
#2867750
1!
#2919500
0!
#2929000
0"
#2972000
1!
#5189750
0!
#5242250
1!
#5294000
0!
#5346500
1!
#5398500
0!
#5406750
1"
#5450750
1!
#5502500
0!
#5555000
1!
#5606750
0!
#5616000
0"
#5659500
1!
#5711250
0!
#5719500
1"
#5763750
1!
#5815500
0!
#5868000
1!
#5919750
0!
#5972250
1!
#8212250
0!
#8221750
0"
#8264750
1!
#8316750
0!
#8369250
1!
#8421000
0!
#8473500
1!
#8525250
0!
#8533750
1"
#8577750
1!
#8629500
0!
#8682000
1!
#8733750
0!
#8786250
1!
#8838000
0!
#8890500
1!
#8942250
0!
#8994750
1!
#11188750
0!
#11198000
0"
#11241250
1!
#11293250
0!
#11345500
1!
#11397500
0!
#11405750
1"
#11449750
1!
#11501500
0!
#11554250
1!
#11605750
0!
#11615000
0"
#11658500
1!
#11710250
0!
#11718500
1"
#11762750
1!
#11814500
0!
#11867000
1!
#11918750
0!
#11971250
1!
#14189250
0!
#14198500
0"
#14241750
1!
#14293500
0!
#14301750
1"
#14346000
1!
#14397750
0!
#14450250
1!
#14502000
0!
#14554500
1!
#14606250
0!
#14658750
1!
#14710500
0!
#14763000
1!
#14814750
0!
#14867250
1!
#14919000
0!
#14971500
1!
#17196500
0!
#17205750
0"
#17249000
1!
#17301000
0!
#17353250
1!
#17405250
0!
#17457500
1!
#17509500
0!
#17562000
1!
#17613750
0!
#17622000
1"
#17666250
1!
#17718000
0!
#17770500
1!
#17822250
0!
#17831250
0"
#17874750
1!
#17926500
0!
#17935000
1"
#17979000
1!
#20190500
0!
#20199750
0"
#20243000
1!
#20294750
0!
#20347250
1!
#20399000
0!
#20451500
1!
#20503500
0!
#20555750
1!
#20607750
0!
#20660000
1!
#20712000
0!
#20764250
1!
#20816250
0!
#20868750
1!
#20920500
0!
#20928750
1"
#20973000
1!
#23190500
0!
#23199750
0"
#23243000
1!
#23295000
0!
#23347250
1!
#23399250
0!
#23451750
1!
#23503500
0!
#23556000
1!
#23607750
0!
#23660250
1!
#23712000
0!
#23764500
1!
#23816250
0!
#23868750
1!
#23920500
0!
#23929000
1"
#23973000
1!
#26191250
0!
#26200500
0"
#26243750
1!
#26295500
0!
#26304000
1"
#26348000
1!
#26399750
0!
#26452250
1!
#26504000
0!
#26556500
1!
#26608250
0!
#26617500
0"
#26660750
1!
#26712750
0!
#26765250
1!
#26817000
0!
#26825250
1"
#26869500
1!
#26921250
0!
#26973750
1!
#39204750
0!
#39214000
0"
#39257250
1!
#39309000
0!
#39361500
1!
#39413250
0!
#39465750
1!
#39517750
0!
#39570000
1!
#39622000
0!
#39674250
1!
#39726250
0!
#39778500
1!
#39830500
0!
#39883000
1!
#39934750
0!
#39987250
1!
#42197000
0!
#42205500
1"
#42249500
1!
#42301250
0!
#42310250
0"
#42353750
1!
#42405500
0!
#42458000
1!
#42509750
0!
#42518250
1"
#42562250
1!
#42614000
0!
#42666500
1!
#42718250
0!
#42770750
1!
#42822500
0!
#42875000
1!
#42926750
0!
#42936000
0"
#42979250
1!
#45197000
0!
#45249500
1!
#45301250
0!
#45353750
1!
#45405500
0!
#45414000
1"
#45458000
1!
#45509750
0!
#45562250
1!
#45614000
0!
#45623250
0"
#45666500
1!
#45718500
0!
#45726750
1"
#45771000
1!
#45822750
0!
#45875250
1!
#45927000
0!
#45979500
1!
#48219500
0!
#48228750
0"
#48272000
1!
#48324000
0!
#48376250
1!
#48428250
0!
#48480750
1!
#48532500
0!
#48540750
1"
#48585000
1!
#48636750
0!
#48689250
1!
#48741000
0!
#48793500
1!
#48845250
0!
#48897750
1!
#48949500
0!
#49002000
1!
#51207750
0!
#51217000
0"
#51260250
1!
#51312000
0!
#51364500
1!
#51416500
0!
#51424750
1"
#51468750
1!
#51520500
0!
#51573000
1!
#51624750
0!
#51634000
0"
#51677250
1!
#51729250
0!
#51737500
1"
#51781750
1!
#51833500
0!
#51886000
1!
#51937750
0!
#51990250
1!
#54203250
0!
#54212500
0"
#54255750
1!
#54307750
0!
#54316000
1"
#54360250
1!
#54412000
0!
#54464500
1!
#54516250
0!
#54568750
1!
#54620500
0!
#54673000
1!
#54724750
0!
#54777250
1!
#54829000
0!
#54881500
1!
#54933250
0!
#54985750
1!
#57199000
0!
#57208000
0"
#57251500
1!
#57303250
0!
#57355750
1!
#57407500
0!
#57460000
1!
#57511750
0!
#57564250
1!
#57616000
0!
#57624500
1"
#57668500
1!
#57720250
0!
#57772750
1!
#57824500
0!
#57833750
0"
#57877000
1!
#57929000
0!
#57937250
1"
#57981250
1!
#60197500
0!
#60206750
0"
#60250000
1!
#60301750
0!
#60354250
1!
#60406000
0!
#60458500
1!
#60510250
0!
#60562750
1!
#60614750
0!
#60667000
1!
#60719000
0!
#60771250
1!
#60823250
0!
#60875500
1!
#60927500
0!
#60935750
1"
#60980000
1!
#63198000
0!
#63207250
0"
#63250500
1!
#63302500
0!
#63354750
1!
#63406750
0!
#63459000
1!
#63511000
0!
#63563500
1!
#63615250
0!
#63667750
1!
#63719500
0!
#63772000
1!
#63823750
0!
#63876250
1!
#63928000
0!
#63936250
1"
#63980500
1!
#66199000
0!
#66208000
0"
#66251500
1!
#66303250
0!
#66311500
1"
#66355750
1!
#66407500
0!
#66460000
1!
#66511750
0!
#66564250
1!
#66616000
0!
#66625000
0"
#66668500
1!
#66720250
0!
#66772750
1!
#66824500
0!
#66833000
1"
#66877000
1!
#66928750
0!
#66981250
1!
#79205750
0!
#79214750
0"
#79258000
1!
#79310000
0!
#79362500
1!
#79414250
0!
#79466750
1!
#79518500
0!
#79571000
1!
#79622750
0!
#79675250
1!
#79727000
0!
#79779500
1!
#79831250
0!
#79883750
1!
#79935500
0!
#79988000
1!
#82202500
0!
#82210750
1"
#82254750
1!
#82306500
0!
#82315750
0"
#82359000
1!
#82411000
0!
#82463250
1!
#82515250
0!
#82523500
1"
#82567500
1!
#82619500
0!
#82672000
1!
#82723750
0!
#82776250
1!
#82828000
0!
#82880500
1!
#82932250
0!
#82941250
0"
#82984750
1!
#85225000
0!
#85277500
1!
#85329250
0!
#85381750
1!
#85433500
0!
#85441750
1"
#85486000
1!
#85537750
0!
#85590250
1!
#85642000
0!
#85651000
0"
#85694500
1!
#85746250
0!
#85754750
1"
#85798750
1!
#85850500
0!
#85903000
1!
#85954750
0!
#86007250
1!
#88220500
0!
#88229750
0"
#88273000
1!
#88324750
0!
#88377250
1!
#88429000
0!
#88481500
1!
#88533250
0!
#88541750
1"
#88585750
1!
#88637500
0!
#88690000
1!
#88741750
0!
#88794250
1!
#88846000
0!
#88898500
1!
#88950250
0!
#89002750
1!
#91208750
0!
#91217750
0"
#91261250
1!
#91313000
0!
#91365500
1!
#91417250
0!
#91425500
1"
#91469750
1!
#91521500
0!
#91574000
1!
#91625750
0!
#91634750
0"
#91678250
1!
#91730000
0!
#91738500
1"
#91782500
1!
#91834250
0!
#91886750
1!
#91938500
0!
#91991000
1!
#94204250
0!
#94213500
0"
#94256750
1!
#94308500
0!
#94317000
1"
#94361000
1!
#94412750
0!
#94465250
1!
#94517000
0!
#94569500
1!
#94621250
0!
#94673750
1!
#94725500
0!
#94778000
1!
#94829750
0!
#94882250
1!
#94934000
0!
#94986500
1!
#97204750
0!
#97214000
0"
#97257250
1!
#97309000
0!
#97361500
1!
#97413500
0!
#97465750
1!
#97517750
0!
#97570000
1!
#97622000
0!
#97630250
1"
#97674250
1!
#97726250
0!
#97778750
1!
#97830500
0!
#97839500
0"
#97883000
1!
#97934750
0!
#97943000
1"
#97987250
1!
#100205250
0!
#100214500
0"
#100257750
1!
#100309750
0!
#100362000
1!
#100414000
0!
#100466500
1!
#100518250
0!
#100570750
1!
#100622500
0!
#100675000
1!
#100726750
0!
#100779250
1!
#100831000
0!
#100883500
1!
#100935250
0!
#100943750
1"
#100987750
1!
#103206000
0!
#103215000
0"
#103258500
1!
#103310250
0!
#103362750
1!
#103414500
0!
#103467000
1!
#103518750
0!
#103571250
1!
#103623000
0!
#103675500
1!
#103727250
0!
#103779750
1!
#103831500
0!
#103884000
1!
#103936000
0!
#103944250
1"
#103988250
1!
#106216250
0!
#106225500
0"
#106268750
1!
#106320500
0!
#106329000
1"
#106373000
1!
#106424750
0!
#106477250
1!
#106529000
0!
#106581500
1!
#106633250
0!
#106642500
0"
#106685750
1!
#106737750
0!
#106790000
1!
#106842000
0!
#106850250
1"
#106894250
1!
#106946250
0!
#106998750
1!
#119212500
0!
#119221500
0"
#119265000
1!
#119316750
0!
#119369250
1!
#119421000
0!
#119473500
1!
#119525250
0!
#119577750
1!
#119629500
0!
#119682000
1!
#119734000
0!
#119786250
1!
#119838250
0!
#119890500
1!
#119942500
0!
#119994750
1!
#122231750
0!
#122240000
1"
#122284250
1!
#122336000
0!
#122345000
0"
#122388500
1!
#122440250
0!
#122492750
1!
#122544500
0!
#122552750
1"
#122597000
1!
#122648750
0!
#122701250
1!
#122753000
0!
#122805500
1!
#122857250
0!
#122909750
1!
#122961500
0!
#122970500
0"
#123014000
1!
#125227250
0!
#125279750
1!
#125331500
0!
#125384000
1!
#125435750
0!
#125444250
1"
#125488250
1!
#125540000
0!
#125592500
1!
#125644250
0!
#125653500
0"
#125696750
1!
#125748750
0!
#125757000
1"
#125801000
1!
#125852750
0!
#125905250
1!
#125957000
0!
#126009750
1!
#128222750
0!
#128232000
0"
#128275250
1!
#128327250
0!
#128379500
1!
#128431500
0!
#128483750
1!
#128535750
0!
#128544000
1"
#128588000
1!
#128640000
0!
#128692500
1!
#128744250
0!
#128796750
1!
#128848500
0!
#128901000
1!
#128952750
0!
#129005250
1!
#131211000
0!
#131220250
0"
#131263500
1!
#131315250
0!
#131367750
1!
#131419500
0!
#131428000
1"
#131472000
1!
#131523750
0!
#131576250
1!
#131628000
0!
#131637250
0"
#131680500
1!
#131732500
0!
#131740750
1"
#131784750
1!
#131836500
0!
#131889000
1!
#131941000
0!
#131993500
1!
#134211500
0!
#134220750
0"
#134264000
1!
#134316000
0!
#134324250
1"
#134368250
1!
#134420000
0!
#134472500
1!
#134524250
0!
#134577000
1!
#134628750
0!
#134681250
1!
#134733000
0!
#134785500
1!
#134837250
0!
#134889750
1!
#134941500
0!
#134994000
1!
#137212500
0!
#137221750
0"
#137265000
1!
#137316750
0!
#137369250
1!
#137421000
0!
#137473500
1!
#137525500
0!
#137577750
1!
#137629750
0!
#137638000
1"
#137682000
1!
#137733750
0!
#137786250
1!
#137838250
0!
#137847250
0"
#137890750
1!
#137942500
0!
#137950750
1"
#137995000
1!
#140212750
0!
#140221750
0"
#140265250
1!
#140317000
0!
#140369500
1!
#140421250
0!
#140473750
1!
#140525500
0!
#140578000
1!
#140629750
0!
#140682250
1!
#140734000
0!
#140786500
1!
#140838500
0!
#140890750
1!
#140942750
0!
#140951000
1"
#140995000
1!
#143223000
0!
#143232250
0"
#143275500
1!
#143327250
0!
#143379750
1!
#143431750
0!
#143484000
1!
#143536000
0!
#143588250
1!
#143640250
0!
#143692500
1!
#143744500
0!
#143797000
1!
#143848750
0!
#143901250
1!
#143953000
0!
#143961250
1"
#144005500
1!
#146218500
0!
#146227750
0"
#146271000
1!
#146323000
0!
#146331250
1"
#146375250
1!
#146427250
0!
#146479750
1!
#146531500
0!
#146584000
1!
#146635750
0!
#146644750
0"
#146688250
1!
#146740000
0!
#146792500
1!
#146844250
0!
#146852500
1"
#146896750
1!
#146948500
0!
#147001000
1!
#159240250
0!
#159249500
0"
#159292750
1!
#159344750
0!
#159397000
1!
#159449000
0!
#159501250
1!
#159553250
0!
#159605750
1!
#159657500
0!
#159710000
1!
#159761750
0!
#159814250
1!
#159866000
0!
#159918500
1!
#159970250
0!
#160022750
1!
#162232500
0!
#162241000
1"
#162285000
1!
#162336750
0!
#162345750
0"
#162389250
1!
#162441250
0!
#162493500
1!
#162545500
0!
#162553750
1"
#162597750
1!
#162649500
0!
#162702000
1!
#162753750
0!
#162806250
1!
#162858250
0!
#162910750
1!
#162962500
0!
#162971500
0"
#163015000
1!
#165228250
0!
#165280500
1!
#165332500
0!
#165384750
1!
#165436750
0!
#165445000
1"
#165489250
1!
#165541000
0!
#165593500
1!
#165645250
0!
#165654250
0"
#165697750
1!
#165749500
0!
#165757750
1"
#165802000
1!
#165853750
0!
#165906250
1!
#165958000
0!
#166010500
1!
#168223750
0!
#168232750
0"
#168276250
1!
#168328000
0!
#168380500
1!
#168432250
0!
#168484750
1!
#168536500
0!
#168544750
1"
#168589000
1!
#168640750
0!
#168693250
1!
#168745000
0!
#168797500
1!
#168849250
0!
#168901750
1!
#168953500
0!
#169006000
1!
#171218500
0!
#171227750
0"
#171271000
1!
#171323000
0!
#171375250
1!
#171427250
0!
#171435500
1"
#171479750
1!
#171531500
0!
#171584000
1!
#171635750
0!
#171644750
0"
#171688250
1!
#171740000
0!
#171748250
1"
#171792500
1!
#171844250
0!
#171896750
1!
#171948500
0!
#172001000
1!
#174219250
0!
#174228500
0"
#174271750
1!
#174323750
0!
#174332000
1"
#174376000
1!
#174427750
0!
#174480250
1!
#174532000
0!
#174584500
1!
#174636250
0!
#174689000
1!
#174740750
0!
#174793250
1!
#174845000
0!
#174897500
1!
#174949250
0!
#175001750
1!
#177220000
0!
#177229000
0"
#177272250
1!
#177324250
0!
#177376750
1!
#177428500
0!
#177481000
1!
#177532750
0!
#177585250
1!
#177637000
0!
#177645250
1"
#177689500
1!
#177741250
0!
#177793750
1!
#177845500
0!
#177854500
0"
#177898000
1!
#177949750
0!
#177958250
1"
#178002250
1!
#180228250
0!
#180237500
0"
#180280750
1!
#180332750
0!
#180385000
1!
#180437000
0!
#180489250
1!
#180541250
0!
#180593500
1!
#180645500
0!
#180698000
1!
#180749750
0!
#180802250
1!
#180854000
0!
#180906500
1!
#180958250
0!
#180966500
1"
#181010750
1!
#183224000
0!
#183233000
0"
#183276500
1!
#183328250
0!
#183380750
1!
#183432500
0!
#183485000
1!
#183536750
0!
#183589250
1!
#183641000
0!
#183693500
1!
#183745250
0!
#183797750
1!
#183849500
0!
#183902000
1!
#183953750
0!
#183962250
1"
#184006250
1!
#186224000
0!
#186233000
0"
#186276500
1!
#186328250
0!
#186336500
1"
#186380750
1!
#186432500
0!
#186485000
1!
#186536750
0!
#186589250
1!
#186641000
0!
#186650000
0"
#186693500
1!
#186745250
0!
#186797750
1!
#186849750
0!
#186858000
1"
#186902000
1!
#186953750
0!
#187006250
1!
#199241250
0!
#199250250
0"
#199293750
1!
#199345500
0!
#199398000
1!
#199449750
0!
#199502250
1!
#199554000
0!
#199606500
1!
#199658250
0!
#199710750
1!
#199762500
0!
#199815000
1!
#199866750
0!
#199919250
1!
#199971250
0!
#200023500
1!
#202233500
0!
#202241750
1"
#202285750
1!
#202337750
0!
#202346750
0"
#202390250
1!
#202442000
0!
#202494500
1!
#202546250
0!
#202554500
1"
#202598750
1!
#202650500
0!
#202703000
1!
#202754750
0!
#202807250
1!
#202859000
0!
#202911500
1!
#202963250
0!
#202972250
0"
#203015750
1!
#205229000
0!
#205281500
1!
#205333250
0!
#205385750
1!
#205437500
0!
#205445750
1"
#205490000
1!
#205541750
0!
#205594250
1!
#205646000
0!
#205655000
0"
#205698500
1!
#205750250
0!
#205758750
1"
#205802750
1!
#205854500
0!
#205907000
1!
#205958750
0!
#206011250
1!
#208226000
0!
#208235250
0"
#208278500
1!
#208330250
0!
#208382750
1!
#208434500
0!
#208487000
1!
#208539000
0!
#208547250
1"
#208591250
1!
#208643000
0!
#208695500
1!
#208747250
0!
#208799750
1!
#208851500
0!
#208904250
1!
#208956000
0!
#209008500
1!
#211226500
0!
#211235750
0"
#211279000
1!
#211331000
0!
#211383250
1!
#211435250
0!
#211443500
1"
#211487500
1!
#211539500
0!
#211592000
1!
#211643750
0!
#211652750
0"
#211696250
1!
#211748000
0!
#211756250
1"
#211800500
1!
#211852250
0!
#211904750
1!
#211956500
0!
#212009000
1!
#214227250
0!
#214236250
0"
#214279750
1!
#214331500
0!
#214339750
1"
#214384000
1!
#214435750
0!
#214488250
1!
#214540000
0!
#214592500
1!
#214644250
0!
#214696750
1!
#214748500
0!
#214801000
1!
#214852750
0!
#214905250
1!
#214957000
0!
#215009500
1!
#217227750
0!
#217236750
0"
#217280250
1!
#217332000
0!
#217384500
1!
#217436250
0!
#217488750
1!
#217540500
0!
#217593000
1!
#217644750
0!
#217653250
1"
#217697250
1!
#217749000
0!
#217801500
1!
#217853250
0!
#217862500
0"
#217905750
1!
#217957750
0!
#217966000
1"
#218010000
1!
#220230750
0!
#220239750
0"
#220283250
1!
#220335000
0!
#220387500
1!
#220439250
0!
#220491750
1!
#220543500
0!
#220596000
1!
#220647750
0!
#220700250
1!
#220752000
0!
#220804500
1!
#220856250
0!
#220908750
1!
#220960500
0!
#220969000
1"
#221013000
1!
#223230750
0!
#223239750
0"
#223283250
1!
#223335000
0!
#223387500
1!
#223439250
0!
#223491750
1!
#223543500
0!
#223596000
1!
#223648000
0!
#223700250
1!
#223752250
0!
#223804500
1!
#223856500
0!
#223908750
1!
#223960750
0!
#223969000
1"
#224013250
1!
#226253250
0!
#226262500
0"
#226305750
1!
#226357750
0!
#226366000
1"
#226410000
1!
#226461750
0!
#226514250
1!
#226566000
0!
#226618500
1!
#226670500
0!
#226679500
0"
#226723000
1!
#226774750
0!
#226827250
1!
#226879000
0!
#226887250
1"
#226931500
1!
#226983250
0!
#227035750
1!
#239243500
0!
#239252750
0"
#239296000
1!
#239347750
0!
#239400250
1!
#239452250
0!
#239504500
1!
#239556500
0!
#239608750
1!
#239660750
0!
#239713000
1!
#239765000
0!
#239817500
1!
#239869250
0!
#239921750
1!
#239973500
0!
#240026000
1!
#242235750
0!
#242288250
1!
#242340000
0!
#242348250
1"
#242392500
1!
#242444250
0!
#242453250
0"
#242496750
1!
#242548500
0!
#242601000
1!
#242652750
0!
#242661250
1"
#242705250
1!
#242757000
0!
#242809500
1!
#242861250
0!
#242870500
0"
#242913750
1!
#242965750
0!
#243018000
1!
#245233000
0!
#245285250
1!
#245337250
0!
#245389500
1!
#245441500
0!
#245449750
1"
#245493750
1!
#245545500
0!
#245598000
1!
#245649750
0!
#245659000
0"
#245702250
1!
#245754250
0!
#245762500
1"
#245806750
1!
#245858500
0!
#245911000
1!
#245962750
0!
#246015250
1!
#248233750
0!
#248286000
1!
#248338000
0!
#248390500
1!
#248442250
0!
#248451250
0"
#248494750
1!
#248546500
0!
#248599000
1!
#248650750
0!
#248659000
1"
#248703250
1!
#248755000
0!
#248807500
1!
#248859250
0!
#248868250
0"
#248911750
1!
#248963500
0!
#248972000
1"
#249016000
1!
#251234000
0!
#251243000
0"
#251286500
1!
#251338250
0!
#251390750
1!
#251442500
0!
#251451000
1"
#251495000
1!
#251546750
0!
#251599250
1!
#251651000
0!
#251660000
0"
#251703500
1!
#251755250
0!
#251763750
1"
#251807750
1!
#251859500
0!
#251912000
1!
#251963750
0!
#252016250
1!
#254234500
0!
#254243500
0"
#254287000
1!
#254338750
0!
#254347250
1"
#254391250
1!
#254443000
0!
#254495500
1!
#254547250
0!
#254599750
1!
#254651500
0!
#254704000
1!
#254755750
0!
#254808250
1!
#254860000
0!
#254912750
1!
#254964500
0!
#255017000
1!
#257243250
0!
#257252500
0"
#257295750
1!
#257347750
0!
#257400000
1!
#257452000
0!
#257504250
1!
#257556250
0!
#257608750
1!
#257660500
0!
#257668750
1"
#257713000
1!
#257764750
0!
#257817250
1!
#257869000
0!
#257878000
0"
#257921500
1!
#257973250
0!
#257981500
1"
#258025750
1!
#260236000
0!
#260245250
0"
#260288500
1!
#260340250
0!
#260392750
1!
#260444500
0!
#260497000
1!
#260549000
0!
#260601250
1!
#260653250
0!
#260705500
1!
#260757500
0!
#260809750
1!
#260861750
0!
#260914250
1!
#260966000
0!
#260974250
1"
#261018500
1!
#263258500
0!
#263267750
0"
#263311000
1!
#263363000
0!
#263415250
1!
#263467250
0!
#263519750
1!
#263571500
0!
#263624000
1!
#263675750
0!
#263728250
1!
#263780000
0!
#263832500
1!
#263884250
0!
#263936750
1!
#263988500
0!
#263997000
1"
#264041000
1!
#266254250
0!
#266263250
0"
#266306750
1!
#266358500
0!
#266366750
1"
#266411000
1!
#266462750
0!
#266515250
1!
#266567000
0!
#266619500
1!
#266671250
0!
#266680500
0"
#266723750
1!
#266775500
0!
#266828000
1!
#266879750
0!
#266888250
1"
#266932250
1!
#266984000
0!
#267036500
1!
#279239250
0!
#279248500
0"
#279291750
1!
#279343500
0!
#279396000
1!
#279447750
0!
#279500250
1!
#279552250
0!
#279604500
1!
#279656500
0!
#279708750
1!
#279760750
0!
#279813000
1!
#279865000
0!
#279917250
1!
#279969250
0!
#280021750
1!
#282240000
0!
#282292250
1!
#282344250
0!
#282352500
1"
#282396500
1!
#282448250
0!
#282457500
0"
#282500750
1!
#282552750
0!
#282605250
1!
#282657000
0!
#282665250
1"
#282709500
1!
#282761250
0!
#282813750
1!
#282865500
0!
#282874500
0"
#282918000
1!
#282969750
0!
#283022250
1!
#285240500
0!
#285293000
1!
#285344750
0!
#285397250
1!
#285449000
0!
#285457250
1"
#285501500
1!
#285553250
0!
#285605750
1!
#285657500
0!
#285666500
0"
#285710000
1!
#285761750
0!
#285770000
1"
#285814250
1!
#285866000
0!
#285918500
1!
#285970250
0!
#286022750
1!
#288241000
0!
#288293500
1!
#288345250
0!
#288397750
1!
#288449500
0!
#288458750
0"
#288502000
1!
#288553750
0!
#288606250
1!
#288658000
0!
#288666500
1"
#288710500
1!
#288762250
0!
#288814750
1!
#288866500
0!
#288875750
0"
#288919000
1!
#288971000
0!
#288979250
1"
#289023250
1!
#291245250
0!
#291254250
0"
#291297750
1!
#291349500
0!
#291402000
1!
#291453750
0!
#291462250
1"
#291506250
1!
#291558000
0!
#291610500
1!
#291662250
0!
#291671250
0"
#291714750
1!
#291766500
0!
#291775000
1"
#291819000
1!
#291870750
0!
#291923250
1!
#291975000
0!
#292027500
1!
#294245250
0!
#294254250
0"
#294297750
1!
#294349500
0!
#294358000
1"
#294402000
1!
#294453750
0!
#294506250
1!
#294558000
0!
#294610500
1!
#294662250
0!
#294714750
1!
#294766500
0!
#294819000
1!
#294870750
0!
#294923250
1!
#294975000
0!
#295027750
1!
#297242500
0!
#297251750
0"
#297295000
1!
#297347000
0!
#297399250
1!
#297451250
0!
#297503500
1!
#297555500
0!
#297607750
1!
#297659750
0!
#297668000
1"
#297712250
1!
#297764000
0!
#297816500
1!
#297868250
0!
#297877250
0"
#297920750
1!
#297972500
0!
#297980750
1"
#298025000
1!
#300256000
0!
#300265250
0"
#300308500
1!
#300360250
0!
#300412750
1!
#300464500
0!
#300517000
1!
#300568750
0!
#300621250
1!
#300673250
0!
#300725500
1!
#300777500
0!
#300829750
1!
#300881750
0!
#300934000
1!
#300986000
0!
#300994250
1"
#301038500
1!
#303251500
0!
#303260750
0"
#303304000
1!
#303356000
0!
#303408250
1!
#303460250
0!
#303512500
1!
#303564500
0!
#303617000
1!
#303668750
0!
#303721250
1!
#303773000
0!
#303825500
1!
#303877250
0!
#303929750
1!
#303981500
0!
#303990000
1"
#304034000
1!
#306247250
0!
#306256250
0"
#306299750
1!
#306351500
0!
#306359750
1"
#306404000
1!
#306455750
0!
#306508250
1!
#306560000
0!
#306612500
1!
#306664250
0!
#306673250
0"
#306716750
1!
#306768500
0!
#306821000
1!
#306872750
0!
#306881250
1"
#306925250
1!
#306977000
0!
#307029500
1!
#319247000
0!
#319256000
0"
#319299500
1!
#319351250
0!
#319403750
1!
#319455500
0!
#319508000
1!
#319559750
0!
#319612250
1!
#319664250
0!
#319716500
1!
#319768500
0!
#319820750
1!
#319872750
0!
#319925000
1!
#319977000
0!
#320029250
1!
#322247750
0!
#322300250
1!
#322352000
0!
#322360250
1"
#322404500
1!
#322456250
0!
#322465250
0"
#322508750
1!
#322560500
0!
#322613000
1!
#322664750
0!
#322673250
1"
#322717250
1!
#322769000
0!
#322821500
1!
#322873250
0!
#322882500
0"
#322925750
1!
#322977750
0!
#323030000
1!
#325259250
0!
#325311750
1!
#325363500
0!
#325416000
1!
#325467750
0!
#325476250
1"
#325520250
1!
#325572000
0!
#325624500
1!
#325676250
0!
#325685500
0"
#325728750
1!
#325780750
0!
#325789000
1"
#325833000
1!
#325884750
0!
#325937250
1!
#325989250
0!
#326041750
1!
#328254750
0!
#328307250
1!
#328359000
0!
#328411500
1!
#328463250
0!
#328472500
0"
#328515750
1!
#328567750
0!
#328620250
1!
#328672000
0!
#328680250
1"
#328724500
1!
#328776250
0!
#328828750
1!
#328880500
0!
#328889500
0"
#328933000
1!
#328984750
0!
#328993250
1"
#329037250
1!
#331249250
0!
#331258500
0"
#331301750
1!
#331353500
0!
#331406000
1!
#331457750
0!
#331466250
1"
#331510250
1!
#331562000
0!
#331614500
1!
#331666250
0!
#331675500
0"
#331718750
1!
#331770750
0!
#331779000
1"
#331823000
1!
#331875000
0!
#331927500
1!
#331979250
0!
#332031750
1!
#334270000
0!
#334279250
0"
#334322500
1!
#334374500
0!
#334382750
1"
#334426750
1!
#334478750
0!
#334531250
1!
#334583000
0!
#334635500
1!
#334687250
0!
#334739750
1!
#334791500
0!
#334844000
1!
#334895750
0!
#334948250
1!
#335000000
0!
#335052500
1!
#337265750
0!
#337274750
0"
#337318250
1!
#337370000
0!
#337422500
1!
#337474250
0!
#337526750
1!
#337578500
0!
#337631000
1!
#337682750
0!
#337691000
1"
#337735250
1!
#337787000
0!
#337839500
1!
#337891250
0!
#337900250
0"
#337943750
1!
#337995500
0!
#338004000
1"
#338048000
1!
#340253750
0!
#340263000
0"
#340306250
1!
#340358250
0!
#340410500
1!
#340462500
0!
#340515000
1!
#340566750
0!
#340619250
1!
#340671000
0!
#340723500
1!
#340775250
0!
#340827750
1!
#340879500
0!
#340932000
1!
#340983750
0!
#340992250
1"
#341036250
1!
#343251500
0!
#343260500
0"
#343304000
1!
#343355750
0!
#343408250
1!
#343460000
0!
#343512500
1!
#343564250
0!
#343616750
1!
#343668500
0!
#343721000
1!
#343772750
0!
#343825250
1!
#343877000
0!
#343929500
1!
#343981500
0!
#343989750
1"
#344033750
1!
#346252500
0!
#346261750
0"
#346305000
1!
#346356750
0!
#346365250
1"
#346409250
1!
#346461000
0!
#346513500
1!
#346565250
0!
#346617750
1!
#346669500
0!
#346678750
0"
#346722000
1!
#346774000
0!
#346826250
1!
#346878250
0!
#346886500
1"
#346930500
1!
#346982500
0!
#347035000
1!
#359254500
0!
#359263750
0"
#359307000
1!
#359359000
0!
#359411250
1!
#359463250
0!
#359515750
1!
#359567500
0!
#359620000
1!
#359671750
0!
#359724250
1!
#359776000
0!
#359828500
1!
#359880250
0!
#359932750
1!
#359984500
0!
#360037000
1!
#362260250
0!
#362312500
1!
#362364250
0!
#362372750
1"
#362416750
1!
#362468500
0!
#362477500
0"
#362521000
1!
#362573000
0!
#362625250
1!
#362677250
0!
#362685500
1"
#362729500
1!
#362781500
0!
#362834000
1!
#362885750
0!
#362894750
0"
#362938250
1!
#362990000
0!
#363042500
1!
#365255750
0!
#365308000
1!
#365360000
0!
#365412250
1!
#365464250
0!
#365472500
1"
#365516750
1!
#365568500
0!
#365621000
1!
#365672750
0!
#365681750
0"
#365725250
1!
#365777000
0!
#365785250
1"
#365829500
1!
#365881250
0!
#365933750
1!
#365985500
0!
#366038000
1!
#368256750
0!
#368309250
1!
#368361000
0!
#368413500
1!
#368465250
0!
#368474250
0"
#368517750
1!
#368569500
0!
#368622000
1!
#368673750
0!
#368682250
1"
#368726250
1!
#368778000
0!
#368830500
1!
#368882250
0!
#368891250
0"
#368934750
1!
#368986750
0!
#368995000
1"
#369039000
1!
#371271000
0!
#371280000
0"
#371323250
1!
#371375250
0!
#371427750
1!
#371479500
0!
#371487750
1"
#371532000
1!
#371583750
0!
#371636250
1!
#371688000
0!
#371697000
0"
#371740500
1!
#371792250
0!
#371800500
1"
#371844750
1!
#371896500
0!
#371949000
1!
#372000750
0!
#372053250
1!
#374266500
0!
#374275500
0"
#374319000
1!
#374370750
0!
#374379000
1"
#374423250
1!
#374475000
0!
#374527500
1!
#374579250
0!
#374631750
1!
#374683500
0!
#374736000
1!
#374787750
0!
#374840250
1!
#374892000
0!
#374944500
1!
#374996250
0!
#375048750
1!
#377262000
0!
#377271250
0"
#377314500
1!
#377366250
0!
#377418750
1!
#377470500
0!
#377523000
1!
#377575000
0!
#377627250
1!
#377679250
0!
#377687500
1"
#377731500
1!
#377783250
0!
#377835750
1!
#377887750
0!
#377896750
0"
#377940250
1!
#377992000
0!
#378000250
1"
#378044500
1!
#380258500
0!
#380267500
0"
#380311000
1!
#380362750
0!
#380415250
1!
#380467000
0!
#380519500
1!
#380571250
0!
#380623750
1!
#380675500
0!
#380728000
1!
#380779750
0!
#380832250
1!
#380884250
0!
#380936500
1!
#380988500
0!
#380996750
1"
#381040750
1!
#383259250
0!
#383268250
0"
#383311750
1!
#383363500
0!
#383416000
1!
#383467750
0!
#383520250
1!
#383572000
0!
#383624500
1!
#383676250
0!
#383728750
1!
#383780500
0!
#383833000
1!
#383884750
0!
#383937250
1!
#383989000
0!
#383997500
1"
#384041500
1!
#386259750
0!
#386268750
0"
#386312250
1!
#386364000
0!
#386372500
1"
#386416500
1!
#386468250
0!
#386520750
1!
#386572500
0!
#386625000
1!
#386676750
0!
